\begin{thebibliography}{1}

\bibitem{nocedal:opt}
J.~Nocedal and S.~J. Wright.
\newblock {\em Numerical optimization}.
\newblock Springer, $2^{nd}$ edition, 2006.
\newblock ISBN:978-0387303031.

\end{thebibliography}
