  -9.9921267921662837e-01   3.9626954502282298e-02   1.9303288842882627e-03
  -3.9626889033350536e-02  -9.9921454375807306e-01   7.2165674379845611e-05
   1.9316724013124032e-03  -4.3840716510019861e-06   9.9999813430951656e-01
